%YAML 1.1
%TAG !u! tag:unity3d.com,2011:
--- !u!21 &2100000
Material:
  serializedVersion: 6
  m_ObjectHideFlags: 0
  m_CorrespondingSourceObject: {fileID: 0}
  m_PrefabInstance: {fileID: 0}
  m_PrefabAsset: {fileID: 0}
  m_Name: distGrabHighlightMat
  m_Shader: {fileID: -6465566751694194690, guid: 5b6126fcec94f6e4696aaf67a79a47be,
    type: 3}
  m_ShaderKeywords: 
  m_LightmapFlags: 4
  m_EnableInstancingVariants: 0
  m_DoubleSidedGI: 0
  m_CustomRenderQueue: -1
  stringTagMap:
    MotionVector: User
  disabledShaderPasses:
  - MOTIONVECTORS
  m_SavedProperties:
    serializedVersion: 3
    m_TexEnvs: []
    m_Floats:
    - _Highlight: 0
    m_Colors:
    - Color_2BACD572: {r: 1, g: 0, b: 0, a: 0}
    - Color_D4DCF389: {r: 0, g: 1, b: 0.16702718, a: 0}
